<svg xmlns="http://www.w3.org/2000/svg" width="25" height="25" viewBox="0 0 25 25">
  <g id="check_box" data-name="check box" transform="translate(-286 -8)">
    <circle id="Ellipse_1" data-name="Ellipse 1" cx="12.5" cy="12.5" r="12.5" transform="translate(286 8)" fill="#063bcb"/>
    <path id="Icon_awesome-check" data-name="Icon awesome-check" d="M4.768,14.839.206,10.277a.7.7,0,0,1,0-.993L1.2,8.292a.7.7,0,0,1,.993,0l3.073,3.073,6.582-6.582a.7.7,0,0,1,.993,0l.993.993a.7.7,0,0,1,0,.993L5.76,14.839A.7.7,0,0,1,4.768,14.839Z" transform="translate(291.457 10.962)" fill="#fff"/>
  </g>
</svg>
