<svg xmlns="http://www.w3.org/2000/svg" xmlns:xlink="http://www.w3.org/1999/xlink" width="40" height="40" viewBox="0 0 40 40">
  <defs>
    <filter id="Ellipse_2" x="0" y="0" width="40" height="40" filterUnits="userSpaceOnUse">
      <feOffset dy="3" input="SourceAlpha"/>
      <feGaussianBlur stdDeviation="2" result="blur"/>
      <feFlood flood-opacity="0.161"/>
      <feComposite operator="in" in2="blur"/>
      <feComposite in="SourceGraphic"/>
    </filter>
  </defs>
  <g id="Component_8_1" data-name="Component 8 – 1" transform="translate(6 3)">
    <g transform="matrix(1, 0, 0, 1, -6, -3)" filter="url(#Ellipse_2)">
      <circle id="Ellipse_2-2" data-name="Ellipse 2" cx="14" cy="14" r="14" transform="translate(6 3)" fill="#747373"/>
    </g>
    <path id="Icon_awesome-user-minus" data-name="Icon awesome-user-minus" d="M6.5,7.427A3.713,3.713,0,1,0,2.785,3.713,3.713,3.713,0,0,0,6.5,7.427Zm2.6.928H8.614a5.05,5.05,0,0,1-4.23,0H3.9a3.9,3.9,0,0,0-3.9,3.9v1.207a1.393,1.393,0,0,0,1.393,1.393H11.6A1.393,1.393,0,0,0,13,13.461V12.254A3.9,3.9,0,0,0,9.1,8.355Z" transform="translate(5 6.073)" fill="#fff"/>
    <line id="Line_3" data-name="Line 3" x2="5" transform="translate(19 13)" fill="none" stroke="#fff" stroke-linecap="round" stroke-width="2"/>
  </g>
</svg>
